verilator/sim.vcd
$version Generated by VerilatedVcd $end
$date Wed May 12 15:41:26 2021
 $end
$timescale 1ps $end

 $scope module TOP $end
  $var wire 20 F address_out [19:0] $end
  $var wire  4 G bus_status [3:0] $end
  $var wire  1 B clk $end
  $var wire 16 E data_in [15:0] $end
  $var wire  1 N pop_queue $end
  $var wire  8 J prefetch_data [7:0] $end
  $var wire  1 I prefetch_request $end
  $var wire  1 M push_queue $end
  $var wire  1 L queue_empty $end
  $var wire  1 K queue_full $end
  $var wire  1 D readyb $end
  $var wire  1 C reset $end
  $var wire  3 H state [2:0] $end
  $scope module v30mz_disassembler $end
   $var wire 16 T AW [15:0] $end
   $var wire 16 Y BP [15:0] $end
   $var wire 16 U BW [15:0] $end
   $var wire 16 V CW [15:0] $end
   $var wire 16 % DS0 [15:0] $end
   $var wire 16 & DS1 [15:0] $end
   $var wire 16 W DW [15:0] $end
   $var wire 16 Z IX [15:0] $end
   $var wire 16 [ IY [15:0] $end
   $var wire 16 ' PC [15:0] $end
   $var wire 16 * PFP [15:0] $end
   $var wire 16 # PS [15:0] $end
   $var wire 16 ( PSW [15:0] $end
   $var wire 16 X SP [15:0] $end
   $var wire 16 $ SS [15:0] $end
   $var wire 20 F address_out [19:0] $end
   $var wire  4 G bus_status [3:0] $end
   $var wire  1 B clk $end
   $var wire 16 E data_in [15:0] $end
   $var wire  1 ] disp_size $end
   $var wire  4 2 dst [3:0] $end
   $var wire  1 \ has_prefix $end
   $var wire  1 0 imm_size $end
   $var wire  8 , modrm [7:0] $end
   $var wire  1 . need_disp $end
   $var wire  1 / need_imm $end
   $var wire  1 - need_modrm $end
   $var wire  3 3 next_state [2:0] $end
   $var wire  8 + opcode [7:0] $end
   $var wire  1 N pop_queue $end
   $var wire  8 J prefetch_data [7:0] $end
   $var wire  1 I prefetch_request $end
   $var wire  1 M push_queue $end
   $var wire  1 L queue_empty $end
   $var wire  1 K queue_full $end
   $var wire  1 D readyb $end
   $var wire  1 C reset $end
   $var wire  2 ) reset_counter [1:0] $end
   $var wire  1 4 reset_initiated $end
   $var wire  4 1 src [3:0] $end
   $var wire  3 H state [2:0] $end
   $var wire  3 Q state_disp_read [2:0] $end
   $var wire  3 S state_execute [2:0] $end
   $var wire  3 R state_imm_read [2:0] $end
   $var wire  3 P state_modrm_read [2:0] $end
   $var wire  3 O state_opcode_read [2:0] $end
   $scope module decode_inst $end
    $var wire  1 ] disp_size $end
    $var wire  1 < disp_size_mod $end
    $var wire  4 2 dst [3:0] $end
    $var wire  3 = dstm [2:0] $end
    $var wire  1 0 imm_size $end
    $var wire  2 ? mod [1:0] $end
    $var wire  8 , modrm [7:0] $end
    $var wire  1 . need_disp $end
    $var wire  1 ; need_disp_mod $end
    $var wire  1 / need_imm $end
    $var wire  1 - need_modrm $end
    $var wire  8 + opcode [7:0] $end
    $var wire  3 A regm [2:0] $end
    $var wire  3 @ rm [2:0] $end
    $var wire  4 1 src [3:0] $end
    $var wire  3 > srcm [2:0] $end
   $upscope $end
   $scope module prefetch_inst $end
    $var wire 16 * PFP [15:0] $end
    $var wire 128 6 buffer [127:0] $end
    $var wire  1 B clk $end
    $var wire 16 E data_in [15:0] $end
    $var wire  8 J data_out [7:0] $end
    $var wire  1 L empty $end
    $var wire  1 K full $end
    $var wire  1 N pop $end
    $var wire  1 M push $end
    $var wire  1 5 reset $end
    $var wire  5 : write_idx [4:0] $end
   $upscope $end
  $upscope $end
 $upscope $end
$enddefinitions $end


#0
b0000000000000000 #
b0000000000000000 $
b0000000000000000 %
b0000000000000000 &
b0000000000000000 '
b0000000000000000 (
b00 )
b0000000000000000 *
b00000000 +
b00000000 ,
1-
0.
0/
00
b0000 1
b0000 2
b001 3
04
15
b00000000000000000000000000000000000000000000000000000000000000000000000000000000000000000000000000000000000000000000000000000000 6
b00000 :
0;
0<
b000 =
b000 >
b00 ?
b000 @
b000 A
0B
1C
1D
b0000000000000000 E
b11111111111111111111 F
b0000 G
b000 H
0I
b00000000 J
0K
1L
0M
0N
b000 O
b001 P
b010 Q
b011 R
b100 S
b0000000000000000 T
b0000000000000000 U
b0000000000000000 V
b0000000000000000 W
b0000000000000000 X
b0000000000000000 Y
b0000000000000000 Z
b0000000000000000 [
0\
0]
#1
14
1B
#2
0B
#3
b1111111111111111 #
b1111000000000010 (
b11 )
05
1B
b11111111111111110000 F
b1111 G
#4
0B
#5
b10 )
1B
#6
0B
#7
b01 )
1B
#8
0B
0C
#9
1B
b1001 G
1I
#10
0B
0D
b0000100000000001 E
#11
1B
b1111 G
0I
1M
#12
0B
1D
#13
b0000000000000010 *
b00000001 +
b00000000000000000000000000000000000000000000000000000000000000000000000000000000000000000000000000000000000000000000100000000001 6
b00010 :
1B
b11111111111111110010 F
b1001 G
1I
b00000001 J
0L
0M
1N
#14
0B
0D
b0001000000000001 E
#15
b0000000000000001 '
b00001000 ,
b0001 1
b000 3
b00000000000000000000000000000000000000000000000000000000000000000000000000000000000000000000000000000000000000000000000000001000 6
b00001 :
b001 >
b001 A
1B
b1111 G
b001 H
0I
b00001000 J
1M
#16
0B
1D
#17
b0000000000000100 *
b001 3
b00000000000000000000000000000000000000000000000000000000000000000000000000000000000000000000000000000000000000000001000000000001 6
b00010 :
1B
b11111111111111110100 F
b1001 G
b000 H
1I
b00000001 J
0M
#18
0B
0D
b0000100000000001 E
#19
b0000000000000010 '
b00010000 ,
b0010 1
b000 3
b00000000000000000000000000000000000000000000000000000000000000000000000000000000000000000000000000000000000000000000000000010000 6
b00001 :
b010 >
b010 A
1B
b1111 G
b001 H
0I
b00010000 J
1M
#20
0B
1D
#21
b0000000000000110 *
b001 3
b00000000000000000000000000000000000000000000000000000000000000000000000000000000000000000000000000000000000000000000100000000001 6
b00010 :
1B
b11111111111111110110 F
b1001 G
b000 H
1I
b00000001 J
0M
#22
0B
0D
b0001000000000001 E
#23
b0000000000000011 '
b00001000 ,
b0001 1
b000 3
b00000000000000000000000000000000000000000000000000000000000000000000000000000000000000000000000000000000000000000000000000001000 6
b00001 :
b001 >
b001 A
1B
b1111 G
b001 H
0I
b00001000 J
1M
#24
0B
1D
#25
b0000000000001000 *
b001 3
b00000000000000000000000000000000000000000000000000000000000000000000000000000000000000000000000000000000000000000001000000000001 6
b00010 :
1B
b11111111111111111000 F
b1001 G
b000 H
1I
b00000001 J
0M
#26
0B
0D
b0000100000000001 E
#27
b0000000000000100 '
b00010000 ,
b0010 1
b000 3
b00000000000000000000000000000000000000000000000000000000000000000000000000000000000000000000000000000000000000000000000000010000 6
b00001 :
b010 >
b010 A
1B
b1111 G
b001 H
0I
b00010000 J
1M
#28
0B
1D
#29
b0000000000001010 *
b001 3
b00000000000000000000000000000000000000000000000000000000000000000000000000000000000000000000000000000000000000000000100000000001 6
b00010 :
1B
b11111111111111111010 F
b1001 G
b000 H
1I
b00000001 J
0M
#30
0B
0D
b0001000000000001 E
#31
b0000000000000101 '
b00001000 ,
b0001 1
b000 3
b00000000000000000000000000000000000000000000000000000000000000000000000000000000000000000000000000000000000000000000000000001000 6
b00001 :
b001 >
b001 A
1B
b1111 G
b001 H
0I
b00001000 J
1M
#32
0B
1D
#33
b0000000000001100 *
b001 3
b00000000000000000000000000000000000000000000000000000000000000000000000000000000000000000000000000000000000000000001000000000001 6
b00010 :
1B
b11111111111111111100 F
b1001 G
b000 H
1I
b00000001 J
0M
#34
0B
0D
b0000100000000001 E
#35
b0000000000000110 '
b00010000 ,
b0010 1
b000 3
b00000000000000000000000000000000000000000000000000000000000000000000000000000000000000000000000000000000000000000000000000010000 6
b00001 :
b010 >
b010 A
1B
b1111 G
b001 H
0I
b00010000 J
1M
#36
0B
1D
#37
b0000000000001110 *
b001 3
b00000000000000000000000000000000000000000000000000000000000000000000000000000000000000000000000000000000000000000000100000000001 6
b00010 :
1B
b11111111111111111110 F
b1001 G
b000 H
1I
b00000001 J
0M
#38
0B
0D
b0001000000000001 E
#39
b0000000000000111 '
b00001000 ,
b0001 1
b000 3
b00000000000000000000000000000000000000000000000000000000000000000000000000000000000000000000000000000000000000000000000000001000 6
b00001 :
b001 >
b001 A
1B
b1111 G
b001 H
0I
b00001000 J
1M
#40
0B
1D
#41
b0000000000010000 *
b001 3
b00000000000000000000000000000000000000000000000000000000000000000000000000000000000000000000000000000000000000000001000000000001 6
b00010 :
1B
b00000000000000000000 F
b1001 G
b000 H
1I
b00000001 J
0M
#42
0B
0D
b0000100000000001 E
#43
b0000000000001000 '
b00010000 ,
b0010 1
b000 3
b00000000000000000000000000000000000000000000000000000000000000000000000000000000000000000000000000000000000000000000000000010000 6
b00001 :
b010 >
b010 A
1B
b1111 G
b001 H
0I
b00010000 J
1M
#44
0B
1D
#45
b0000000000010010 *
b001 3
b00000000000000000000000000000000000000000000000000000000000000000000000000000000000000000000000000000000000000000000100000000001 6
b00010 :
1B
b00000000000000000010 F
b1001 G
b000 H
1I
b00000001 J
0M
#46
0B
0D
b0001000000000001 E
#47
b0000000000001001 '
b00001000 ,
b0001 1
b000 3
b00000000000000000000000000000000000000000000000000000000000000000000000000000000000000000000000000000000000000000000000000001000 6
b00001 :
b001 >
b001 A
1B
b1111 G
b001 H
0I
b00001000 J
1M
#48
0B
1D
#49
b0000000000010100 *
b001 3
b00000000000000000000000000000000000000000000000000000000000000000000000000000000000000000000000000000000000000000001000000000001 6
b00010 :
1B
b00000000000000000100 F
b1001 G
b000 H
1I
b00000001 J
0M
#50
0B
0D
b0000100000000001 E
#51
b0000000000001010 '
b00010000 ,
b0010 1
b000 3
b00000000000000000000000000000000000000000000000000000000000000000000000000000000000000000000000000000000000000000000000000010000 6
b00001 :
b010 >
b010 A
1B
b1111 G
b001 H
0I
b00010000 J
1M
#52
0B
1D
#53
b0000000000010110 *
b001 3
b00000000000000000000000000000000000000000000000000000000000000000000000000000000000000000000000000000000000000000000100000000001 6
b00010 :
1B
b00000000000000000110 F
b1001 G
b000 H
1I
b00000001 J
0M
#54
0B
0D
b0001000000000001 E
#55
b0000000000001011 '
b00001000 ,
b0001 1
b000 3
b00000000000000000000000000000000000000000000000000000000000000000000000000000000000000000000000000000000000000000000000000001000 6
b00001 :
b001 >
b001 A
1B
b1111 G
b001 H
0I
b00001000 J
1M
#56
0B
1D
#57
b0000000000011000 *
b001 3
b00000000000000000000000000000000000000000000000000000000000000000000000000000000000000000000000000000000000000000001000000000001 6
b00010 :
1B
b00000000000000001000 F
b1001 G
b000 H
1I
b00000001 J
0M
#58
0B
0D
b0000100000000001 E
#59
b0000000000001100 '
b00010000 ,
b0010 1
b000 3
b00000000000000000000000000000000000000000000000000000000000000000000000000000000000000000000000000000000000000000000000000010000 6
b00001 :
b010 >
b010 A
1B
b1111 G
b001 H
0I
b00010000 J
1M
#60
0B
1D
#61
b0000000000011010 *
b001 3
b00000000000000000000000000000000000000000000000000000000000000000000000000000000000000000000000000000000000000000000100000000001 6
b00010 :
1B
b00000000000000001010 F
b1001 G
b000 H
1I
b00000001 J
0M
#62
0B
0D
b0001000000000001 E
#63
b0000000000001101 '
b00001000 ,
b0001 1
b000 3
b00000000000000000000000000000000000000000000000000000000000000000000000000000000000000000000000000000000000000000000000000001000 6
b00001 :
b001 >
b001 A
1B
b1111 G
b001 H
0I
b00001000 J
1M
#64
0B
1D
#65
b0000000000011100 *
b001 3
b00000000000000000000000000000000000000000000000000000000000000000000000000000000000000000000000000000000000000000001000000000001 6
b00010 :
1B
b00000000000000001100 F
b1001 G
b000 H
1I
b00000001 J
0M
#66
0B
0D
b0000100000000001 E
#67
b0000000000001110 '
b00010000 ,
b0010 1
b000 3
b00000000000000000000000000000000000000000000000000000000000000000000000000000000000000000000000000000000000000000000000000010000 6
b00001 :
b010 >
b010 A
1B
b1111 G
b001 H
0I
b00010000 J
1M
#68
0B
1D
#69
b0000000000011110 *
b001 3
b00000000000000000000000000000000000000000000000000000000000000000000000000000000000000000000000000000000000000000000100000000001 6
b00010 :
1B
b00000000000000001110 F
b1001 G
b000 H
1I
b00000001 J
0M
#70
0B
0D
b0001000000000001 E
#71
b0000000000001111 '
b00001000 ,
b0001 1
b000 3
b00000000000000000000000000000000000000000000000000000000000000000000000000000000000000000000000000000000000000000000000000001000 6
b00001 :
b001 >
b001 A
1B
b1111 G
b001 H
0I
b00001000 J
1M
#72
0B
1D
#73
b0000000000100000 *
b001 3
b00000000000000000000000000000000000000000000000000000000000000000000000000000000000000000000000000000000000000000001000000000001 6
b00010 :
1B
b00000000000000010000 F
b1001 G
b000 H
1I
b00000001 J
0M
#74
0B
0D
b0000100000000001 E
#75
b0000000000010000 '
b00010000 ,
b0010 1
b000 3
b00000000000000000000000000000000000000000000000000000000000000000000000000000000000000000000000000000000000000000000000000010000 6
b00001 :
b010 >
b010 A
1B
b1111 G
b001 H
0I
b00010000 J
1M
#76
0B
1D
#77
b0000000000100010 *
b001 3
b00000000000000000000000000000000000000000000000000000000000000000000000000000000000000000000000000000000000000000000100000000001 6
b00010 :
1B
b00000000000000010010 F
b1001 G
b000 H
1I
b00000001 J
0M
#78
0B
0D
b0001000000000001 E
#79
b0000000000010001 '
b00001000 ,
b0001 1
b000 3
b00000000000000000000000000000000000000000000000000000000000000000000000000000000000000000000000000000000000000000000000000001000 6
b00001 :
b001 >
b001 A
1B
b1111 G
b001 H
0I
b00001000 J
1M
#80
0B
1D
#81
b0000000000100100 *
b001 3
b00000000000000000000000000000000000000000000000000000000000000000000000000000000000000000000000000000000000000000001000000000001 6
b00010 :
1B
b00000000000000010100 F
b1001 G
b000 H
1I
b00000001 J
0M
#82
0B
0D
b0000100000000001 E
#83
b0000000000010010 '
b00010000 ,
b0010 1
b000 3
b00000000000000000000000000000000000000000000000000000000000000000000000000000000000000000000000000000000000000000000000000010000 6
b00001 :
b010 >
b010 A
1B
b1111 G
b001 H
0I
b00010000 J
1M
#84
0B
1D
#85
b0000000000100110 *
b001 3
b00000000000000000000000000000000000000000000000000000000000000000000000000000000000000000000000000000000000000000000100000000001 6
b00010 :
1B
b00000000000000010110 F
b1001 G
b000 H
1I
b00000001 J
0M
#86
0B
0D
b0001000000000001 E
#87
b0000000000010011 '
b00001000 ,
b0001 1
b000 3
b00000000000000000000000000000000000000000000000000000000000000000000000000000000000000000000000000000000000000000000000000001000 6
b00001 :
b001 >
b001 A
1B
b1111 G
b001 H
0I
b00001000 J
1M
#88
0B
1D
#89
b0000000000101000 *
b001 3
b00000000000000000000000000000000000000000000000000000000000000000000000000000000000000000000000000000000000000000001000000000001 6
b00010 :
1B
b00000000000000011000 F
b1001 G
b000 H
1I
b00000001 J
0M
#90
0B
0D
b0000100000000001 E
#91
b0000000000010100 '
b00010000 ,
b0010 1
b000 3
b00000000000000000000000000000000000000000000000000000000000000000000000000000000000000000000000000000000000000000000000000010000 6
b00001 :
b010 >
b010 A
1B
b1111 G
b001 H
0I
b00010000 J
1M
#92
0B
1D
#93
b0000000000101010 *
b001 3
b00000000000000000000000000000000000000000000000000000000000000000000000000000000000000000000000000000000000000000000100000000001 6
b00010 :
1B
b00000000000000011010 F
b1001 G
b000 H
1I
b00000001 J
0M
#94
0B
0D
b0001000000000001 E
#95
b0000000000010101 '
b00001000 ,
b0001 1
b000 3
b00000000000000000000000000000000000000000000000000000000000000000000000000000000000000000000000000000000000000000000000000001000 6
b00001 :
b001 >
b001 A
1B
b1111 G
b001 H
0I
b00001000 J
1M
#96
0B
1D
#97
b0000000000101100 *
b001 3
b00000000000000000000000000000000000000000000000000000000000000000000000000000000000000000000000000000000000000000001000000000001 6
b00010 :
1B
b00000000000000011100 F
b1001 G
b000 H
1I
b00000001 J
0M
#98
0B
0D
b0000100000000001 E
#99
b0000000000010110 '
b00010000 ,
b0010 1
b000 3
b00000000000000000000000000000000000000000000000000000000000000000000000000000000000000000000000000000000000000000000000000010000 6
b00001 :
b010 >
b010 A
1B
b1111 G
b001 H
0I
b00010000 J
1M
#100
0B
1D
#101
b0000000000101110 *
b001 3
b00000000000000000000000000000000000000000000000000000000000000000000000000000000000000000000000000000000000000000000100000000001 6
b00010 :
1B
b00000000000000011110 F
b1001 G
b000 H
1I
b00000001 J
0M
#102
0B
0D
b0001000000000001 E
#103
b0000000000010111 '
b00001000 ,
b0001 1
b000 3
b00000000000000000000000000000000000000000000000000000000000000000000000000000000000000000000000000000000000000000000000000001000 6
b00001 :
b001 >
b001 A
1B
b1111 G
b001 H
0I
b00001000 J
1M
#104
0B
1D
#105
b0000000000110000 *
b001 3
b00000000000000000000000000000000000000000000000000000000000000000000000000000000000000000000000000000000000000000001000000000001 6
b00010 :
1B
b00000000000000100000 F
b1001 G
b000 H
1I
b00000001 J
0M
#106
0B
0D
b0000100000000001 E
#107
b0000000000011000 '
b00010000 ,
b0010 1
b000 3
b00000000000000000000000000000000000000000000000000000000000000000000000000000000000000000000000000000000000000000000000000010000 6
b00001 :
b010 >
b010 A
1B
b1111 G
b001 H
0I
b00010000 J
1M
#108
0B
1D
#109
b0000000000110010 *
b001 3
b00000000000000000000000000000000000000000000000000000000000000000000000000000000000000000000000000000000000000000000100000000001 6
b00010 :
1B
b00000000000000100010 F
b1001 G
b000 H
1I
b00000001 J
0M
#110
0B
0D
b0001000000000001 E
#111
b0000000000011001 '
b00001000 ,
b0001 1
b000 3
b00000000000000000000000000000000000000000000000000000000000000000000000000000000000000000000000000000000000000000000000000001000 6
b00001 :
b001 >
b001 A
1B
b1111 G
b001 H
0I
b00001000 J
1M
#112
0B
1D
#113
b0000000000110100 *
b001 3
b00000000000000000000000000000000000000000000000000000000000000000000000000000000000000000000000000000000000000000001000000000001 6
b00010 :
1B
b00000000000000100100 F
b1001 G
b000 H
1I
b00000001 J
0M
#114
0B
0D
b0000100000000001 E
#115
b0000000000011010 '
b00010000 ,
b0010 1
b000 3
b00000000000000000000000000000000000000000000000000000000000000000000000000000000000000000000000000000000000000000000000000010000 6
b00001 :
b010 >
b010 A
1B
b1111 G
b001 H
0I
b00010000 J
1M
#116
0B
1D
#117
b0000000000110110 *
b001 3
b00000000000000000000000000000000000000000000000000000000000000000000000000000000000000000000000000000000000000000000100000000001 6
b00010 :
1B
b00000000000000100110 F
b1001 G
b000 H
1I
b00000001 J
0M
#118
0B
0D
b0001000000000001 E
#119
b0000000000011011 '
b00001000 ,
b0001 1
b000 3
b00000000000000000000000000000000000000000000000000000000000000000000000000000000000000000000000000000000000000000000000000001000 6
b00001 :
b001 >
b001 A
1B
b1111 G
b001 H
0I
b00001000 J
1M
#120
0B
1D
#121
b0000000000111000 *
b001 3
b00000000000000000000000000000000000000000000000000000000000000000000000000000000000000000000000000000000000000000001000000000001 6
b00010 :
1B
b00000000000000101000 F
b1001 G
b000 H
1I
b00000001 J
0M
#122
0B
0D
b0000100000000001 E
#123
b0000000000011100 '
b00010000 ,
b0010 1
b000 3
b00000000000000000000000000000000000000000000000000000000000000000000000000000000000000000000000000000000000000000000000000010000 6
b00001 :
b010 >
b010 A
1B
b1111 G
b001 H
0I
b00010000 J
1M
#124
0B
1D
#125
b0000000000111010 *
b001 3
b00000000000000000000000000000000000000000000000000000000000000000000000000000000000000000000000000000000000000000000100000000001 6
b00010 :
1B
b00000000000000101010 F
b1001 G
b000 H
1I
b00000001 J
0M
#126
0B
0D
b0001000000000001 E
#127
b0000000000011101 '
b00001000 ,
b0001 1
b000 3
b00000000000000000000000000000000000000000000000000000000000000000000000000000000000000000000000000000000000000000000000000001000 6
b00001 :
b001 >
b001 A
1B
b1111 G
b001 H
0I
b00001000 J
1M
#128
0B
1D
#129
b0000000000111100 *
b001 3
b00000000000000000000000000000000000000000000000000000000000000000000000000000000000000000000000000000000000000000001000000000001 6
b00010 :
1B
b00000000000000101100 F
b1001 G
b000 H
1I
b00000001 J
0M
#130
0B
0D
b0000100000000001 E
#131
b0000000000011110 '
b00010000 ,
b0010 1
b000 3
b00000000000000000000000000000000000000000000000000000000000000000000000000000000000000000000000000000000000000000000000000010000 6
b00001 :
b010 >
b010 A
1B
b1111 G
b001 H
0I
b00010000 J
1M
#132
0B
1D
#133
b0000000000111110 *
b001 3
b00000000000000000000000000000000000000000000000000000000000000000000000000000000000000000000000000000000000000000000100000000001 6
b00010 :
1B
b00000000000000101110 F
b1001 G
b000 H
1I
b00000001 J
0M
#134
0B
0D
b0001000000000001 E
#135
b0000000000011111 '
b00001000 ,
b0001 1
b000 3
b00000000000000000000000000000000000000000000000000000000000000000000000000000000000000000000000000000000000000000000000000001000 6
b00001 :
b001 >
b001 A
1B
b1111 G
b001 H
0I
b00001000 J
1M
#136
0B
1D
#137
b0000000001000000 *
b001 3
b00000000000000000000000000000000000000000000000000000000000000000000000000000000000000000000000000000000000000000001000000000001 6
b00010 :
1B
b00000000000000110000 F
b1001 G
b000 H
1I
b00000001 J
0M
#138
0B
0D
b0000100000000001 E
#139
b0000000000100000 '
b00010000 ,
b0010 1
b000 3
b00000000000000000000000000000000000000000000000000000000000000000000000000000000000000000000000000000000000000000000000000010000 6
b00001 :
b010 >
b010 A
1B
b1111 G
b001 H
0I
b00010000 J
1M
#140
0B
1D
#141
b0000000001000010 *
b001 3
b00000000000000000000000000000000000000000000000000000000000000000000000000000000000000000000000000000000000000000000100000000001 6
b00010 :
1B
b00000000000000110010 F
b1001 G
b000 H
1I
b00000001 J
0M
#142
0B
0D
b0001000000000001 E
#143
b0000000000100001 '
b00001000 ,
b0001 1
b000 3
b00000000000000000000000000000000000000000000000000000000000000000000000000000000000000000000000000000000000000000000000000001000 6
b00001 :
b001 >
b001 A
1B
b1111 G
b001 H
0I
b00001000 J
1M
#144
0B
1D
#145
b0000000001000100 *
b001 3
b00000000000000000000000000000000000000000000000000000000000000000000000000000000000000000000000000000000000000000001000000000001 6
b00010 :
1B
b00000000000000110100 F
b1001 G
b000 H
1I
b00000001 J
0M
#146
0B
0D
b0000100000000001 E
#147
b0000000000100010 '
b00010000 ,
b0010 1
b000 3
b00000000000000000000000000000000000000000000000000000000000000000000000000000000000000000000000000000000000000000000000000010000 6
b00001 :
b010 >
b010 A
1B
b1111 G
b001 H
0I
b00010000 J
1M
#148
0B
1D
#149
b0000000001000110 *
b001 3
b00000000000000000000000000000000000000000000000000000000000000000000000000000000000000000000000000000000000000000000100000000001 6
b00010 :
1B
b00000000000000110110 F
b1001 G
b000 H
1I
b00000001 J
0M
#150
0B
0D
b0001000000000001 E
#151
b0000000000100011 '
b00001000 ,
b0001 1
b000 3
b00000000000000000000000000000000000000000000000000000000000000000000000000000000000000000000000000000000000000000000000000001000 6
b00001 :
b001 >
b001 A
1B
b1111 G
b001 H
0I
b00001000 J
1M
#152
0B
1D
#153
b0000000001001000 *
b001 3
b00000000000000000000000000000000000000000000000000000000000000000000000000000000000000000000000000000000000000000001000000000001 6
b00010 :
1B
b00000000000000111000 F
b1001 G
b000 H
1I
b00000001 J
0M
#154
0B
0D
b0000100000000001 E
#155
b0000000000100100 '
b00010000 ,
b0010 1
b000 3
b00000000000000000000000000000000000000000000000000000000000000000000000000000000000000000000000000000000000000000000000000010000 6
b00001 :
b010 >
b010 A
1B
b1111 G
b001 H
0I
b00010000 J
1M
#156
0B
1D
#157
b0000000001001010 *
b001 3
b00000000000000000000000000000000000000000000000000000000000000000000000000000000000000000000000000000000000000000000100000000001 6
b00010 :
1B
b00000000000000111010 F
b1001 G
b000 H
1I
b00000001 J
0M
#158
0B
0D
b0001000000000001 E
#159
b0000000000100101 '
b00001000 ,
b0001 1
b000 3
b00000000000000000000000000000000000000000000000000000000000000000000000000000000000000000000000000000000000000000000000000001000 6
b00001 :
b001 >
b001 A
1B
b1111 G
b001 H
0I
b00001000 J
1M
#160
0B
1D
#161
b0000000001001100 *
b001 3
b00000000000000000000000000000000000000000000000000000000000000000000000000000000000000000000000000000000000000000001000000000001 6
b00010 :
1B
b00000000000000111100 F
b1001 G
b000 H
1I
b00000001 J
0M
#162
0B
0D
b0000100000000001 E
#163
b0000000000100110 '
b00010000 ,
b0010 1
b000 3
b00000000000000000000000000000000000000000000000000000000000000000000000000000000000000000000000000000000000000000000000000010000 6
b00001 :
b010 >
b010 A
1B
b1111 G
b001 H
0I
b00010000 J
1M
#164
0B
1D
#165
b0000000001001110 *
b001 3
b00000000000000000000000000000000000000000000000000000000000000000000000000000000000000000000000000000000000000000000100000000001 6
b00010 :
1B
b00000000000000111110 F
b1001 G
b000 H
1I
b00000001 J
0M
#166
0B
0D
b0001000000000001 E
#167
b0000000000100111 '
b00001000 ,
b0001 1
b000 3
b00000000000000000000000000000000000000000000000000000000000000000000000000000000000000000000000000000000000000000000000000001000 6
b00001 :
b001 >
b001 A
1B
b1111 G
b001 H
0I
b00001000 J
1M
#168
0B
1D
#169
b0000000001010000 *
b001 3
b00000000000000000000000000000000000000000000000000000000000000000000000000000000000000000000000000000000000000000001000000000001 6
b00010 :
1B
b00000000000001000000 F
b1001 G
b000 H
1I
b00000001 J
0M
#170
0B
0D
b0000100000000001 E
#171
b0000000000101000 '
b00010000 ,
b0010 1
b000 3
b00000000000000000000000000000000000000000000000000000000000000000000000000000000000000000000000000000000000000000000000000010000 6
b00001 :
b010 >
b010 A
1B
b1111 G
b001 H
0I
b00010000 J
1M
#172
0B
1D
#173
b0000000001010010 *
b001 3
b00000000000000000000000000000000000000000000000000000000000000000000000000000000000000000000000000000000000000000000100000000001 6
b00010 :
1B
b00000000000001000010 F
b1001 G
b000 H
1I
b00000001 J
0M
#174
0B
0D
b0001000000000001 E
#175
b0000000000101001 '
b00001000 ,
b0001 1
b000 3
b00000000000000000000000000000000000000000000000000000000000000000000000000000000000000000000000000000000000000000000000000001000 6
b00001 :
b001 >
b001 A
1B
b1111 G
b001 H
0I
b00001000 J
1M
#176
0B
1D
#177
b0000000001010100 *
b001 3
b00000000000000000000000000000000000000000000000000000000000000000000000000000000000000000000000000000000000000000001000000000001 6
b00010 :
1B
b00000000000001000100 F
b1001 G
b000 H
1I
b00000001 J
0M
#178
0B
0D
b0000100000000001 E
#179
b0000000000101010 '
b00010000 ,
b0010 1
b000 3
b00000000000000000000000000000000000000000000000000000000000000000000000000000000000000000000000000000000000000000000000000010000 6
b00001 :
b010 >
b010 A
1B
b1111 G
b001 H
0I
b00010000 J
1M
#180
0B
1D
#181
b0000000001010110 *
b001 3
b00000000000000000000000000000000000000000000000000000000000000000000000000000000000000000000000000000000000000000000100000000001 6
b00010 :
1B
b00000000000001000110 F
b1001 G
b000 H
1I
b00000001 J
0M
#182
0B
0D
b0001000000000001 E
#183
b0000000000101011 '
b00001000 ,
b0001 1
b000 3
b00000000000000000000000000000000000000000000000000000000000000000000000000000000000000000000000000000000000000000000000000001000 6
b00001 :
b001 >
b001 A
1B
b1111 G
b001 H
0I
b00001000 J
1M
#184
0B
1D
#185
b0000000001011000 *
b001 3
b00000000000000000000000000000000000000000000000000000000000000000000000000000000000000000000000000000000000000000001000000000001 6
b00010 :
1B
b00000000000001001000 F
b1001 G
b000 H
1I
b00000001 J
0M
#186
0B
0D
b0000100000000001 E
#187
b0000000000101100 '
b00010000 ,
b0010 1
b000 3
b00000000000000000000000000000000000000000000000000000000000000000000000000000000000000000000000000000000000000000000000000010000 6
b00001 :
b010 >
b010 A
1B
b1111 G
b001 H
0I
b00010000 J
1M
#188
0B
1D
#189
b0000000001011010 *
b001 3
b00000000000000000000000000000000000000000000000000000000000000000000000000000000000000000000000000000000000000000000100000000001 6
b00010 :
1B
b00000000000001001010 F
b1001 G
b000 H
1I
b00000001 J
0M
#190
0B
0D
b0001000000000001 E
#191
b0000000000101101 '
b00001000 ,
b0001 1
b000 3
b00000000000000000000000000000000000000000000000000000000000000000000000000000000000000000000000000000000000000000000000000001000 6
b00001 :
b001 >
b001 A
1B
b1111 G
b001 H
0I
b00001000 J
1M
#192
0B
1D
#193
b0000000001011100 *
b001 3
b00000000000000000000000000000000000000000000000000000000000000000000000000000000000000000000000000000000000000000001000000000001 6
b00010 :
1B
b00000000000001001100 F
b1001 G
b000 H
1I
b00000001 J
0M
#194
0B
0D
b0000100000000001 E
#195
b0000000000101110 '
b00010000 ,
b0010 1
b000 3
b00000000000000000000000000000000000000000000000000000000000000000000000000000000000000000000000000000000000000000000000000010000 6
b00001 :
b010 >
b010 A
1B
b1111 G
b001 H
0I
b00010000 J
1M
#196
0B
1D
#197
b0000000001011110 *
b001 3
b00000000000000000000000000000000000000000000000000000000000000000000000000000000000000000000000000000000000000000000100000000001 6
b00010 :
1B
b00000000000001001110 F
b1001 G
b000 H
1I
b00000001 J
0M
#198
0B
0D
b0001000000000001 E
#199
b0000000000101111 '
b00001000 ,
b0001 1
b000 3
b00000000000000000000000000000000000000000000000000000000000000000000000000000000000000000000000000000000000000000000000000001000 6
b00001 :
b001 >
b001 A
1B
b1111 G
b001 H
0I
b00001000 J
1M
